473086 527715 470
502105 866023 525
523735 970138 525
645471 441833 509
686292 47133 509
794127 693402 504
546715 409031 470
386253 166398 443
138802 234999 443
909151 283481 525
244080 987677 525
815486 534474 509
472549 769347 509
457688 605120 470
810249 845466 525
367075 927349 525
948356 843806 507
612670 979375 525
691742 959646 525
681620 496887 509
686179 931633 525
661808 911484 525
710574 593033 509
455146 870021 525
96171 610461 470
44563 44768 270
468092 902473 525
145031 148606 357
170687 390363 443
664528 470293 509
892426 519358 525
900451 640762 525
824369 211771 509
174116 943205 525
683479 562483 509
400403 597238 470
380471 934399 525
880708 7615 525
118473 910999 525
389667 475427 449
848449 54518 525
366074 630640 509
174883 968717 525
623925 194693 470
335052 590421 470
512165 892634 525
394224 594894 470
317401 748572 509
458799 191419 449
609804 689074 509
975138 830137 525
484130 295027 449
676883 74097 509
74492 626948 509
844558 685242 525
966045 929128 507
842655 727848 525
938086 495515 525
778317 75228 509
571568 900292 525
453561 836019 509
694817 161133 509
94187 704487 509
149634 338794 443
92059 372521 443
260854 271571 407
581962 153215 470
993118 983306 427
169154 771217 509
55827 974471 525
632308 105147 509
207432 401100 443
308161 454759 449
302832 378842 441
249132 677245 509
910967 902867 476
731745 629008 504
16897 734554 509
977398 361653 525
91099 762470 509
882252 786378 525
800947 803933 406
908006 503665 525
158072 432537 449
722126 715464 411
888903 861971 445
820240 952835 525
750362 500358 509
615308 386923 470
452522 89676 449
399183 357546 436
559644 343306 470
106265 436181 449
237969 213755 443
265725 33264 443
398699 295895 441
59558 498404 449
820473 59637 509
73185 247921 443
441514 632248 509
424222 339638 449
320465 621288 470
281624 211003 443
943528 723461 525
449362 952660 525
963009 60894 525
335188 763144 509
78551 580228 470
470854 160196 449
833645 979994 525
414845 236654 449
66254 739932 509
373076 846855 525
679106 141369 509
312918 696963 509
579923 521946 452
310949 653131 509
44545 571610 470
358654 557333 470
416747 831832 509
572766 109373 470
988095 749596 525
642170 151201 509
88581 969796 525
393888 21017 443
804 951 179
111 255 128
64 724 171
763 75 171
713 62 171
591 685 145
545 87 144
962 782 179
9 446 144
811 561 171
72 541 144
945 27 179
279 518 144
72 517 144
835 18 171
646 623 132
654 798 171
662 45 145
485 503 142
744 402 171
606 663 145
791 456 171
619 527 137
110 593 144
177 777 171
295 867 171
126 842 171
310 469 144
989 216 179
839 982 179
261 22 128
460 48 144
836 920 179
924 963 174
836 601 171
270 625 144
94 395 144
295 804 171
935 1 179
520 67 144
202 953 179
165 744 171
576 260 144
593 612 132
849 249 171
109 508 144
375 385 108
236 102 128
454 375 134
446 454 116
779 10 171
742 101 171
917 562 179
306 208 128
327 36 144
603 27 144
684 154 145
649 434 145
413 377 134
669 380 145
871 611 179
253 472 144
454 769 171
964 605 179
656 31 145
700 578 145
537 412 142
114 14 119
986 146 179
58 648 144
685 467 145
745 201 171
879 917 148
515 438 142
128 110 114
934 508 179
473 63 144
990 634 179
283 658 145
603 676 145
837 589 171
911 731 179
99 299 128
355 954 179
315 749 171
163 470 144
946 344 179
1 74 116
364 159 144
12 336 144
562 959 179
828 174 171
939 389 179
764 496 171
160 197 125
192 703 171
918 975 174
998 327 179
641 95 144
97 408 144
628 634 39
5 646 144
854 920 179
490 111 144
196 394 144
947 816 179
509 845 171
237 36 128
74 359 144
851 992 179
986 857 179
178 533 144
696 465 145
206 376 144
99 403 144
806 602 171
888 172 179
941 304 179
694 678 127
236 679 145
292 633 144
722 570 171
27 450 144
696 491 145
874 569 179
