520963 610052 452
884647 773858 525
487816 349328 449
24222 520244 470
625530 705274 509
979905 806891 525
409381 395556 405
723509 358382 509
28467 297329 443
344025 375180 441
109580 475944 449
912051 199767 525
901871 859967 445
36487 853061 525
869999 872353 432
244822 826159 509
998062 57790 525
69829 928956 525
537607 232047 470
790681 655159 504
899318 72966 525
292417 822015 509
570274 871039 525
602659 695758 509
666471 297959 509
298386 726057 509
237285 127402 443
325324 984600 525
652127 910857 525
245269 881778 525
599538 859237 525
185283 829331 509
965835 219865 525
961101 23835 525
600713 537638 452
564447 627173 509
103627 97848 341
785691 482602 509
159730 475862 449
103736 461021 449
428020 784458 509
102663 665147 509
720328 724704 411
671296 543870 509
608156 784632 509
181876 850199 525
288889 609849 470
783331 936924 525
199595 704819 509
248938 672303 509
786984 478330 509
775775 304402 509
350487 690159 509
828625 442136 509
583435 12790 470
118878 744702 509
129270 593407 470
135815 362486 443
383359 673866 509
667697 299701 509
358480 979145 525
196168 800902 509
145827 578355 470
252367 212396 443
419125 970600 525
337700 82815 443
524876 588207 452
370648 342474 441
705533 17864 509
233135 744117 509
169139 366556 443
625864 952955 525
162156 463516 449
351108 777383 509
796617 91052 509
616336 676496 509
20252 523959 470
301943 199453 443
890904 194471 525
368449 89500 443
376711 713257 509
617892 399110 470
783356 333532 509
973349 646900 525
826614 674235 504
822989 913940 525
584944 279248 470
669004 754311 504
586751 752967 509
13956 776552 509
703012 521693 509
489182 413679 444
810326 247820 509
699183 868183 525
239021 353228 441
802528 288669 509
950409 239964 525
888506 330146 525
882669 895799 445
104925 291074 443
484854 451188 444
432143 386247 449
924989 360497 525
310263 181218 443
8237 882844 525
120399 442612 449
330930 956591 525
310983 211231 443
637745 512178 509
206579 496469 449
96804 187334 383
387491 657124 509
254296 178981 443
966141 782900 525
10005 886784 525
142181 363168 443
16229 909858 525
218144 197301 386
79516 639694 509
69535 671892 509
298061 744724 509
409708 251481 441
927753 786514 525
866271 694193 525
652236 196045 509
107543 223134 386
262628 883573 525
842031 425750 525
263635 426020 449
176102 31713 383
569712 157924 470
234736 945650 525
578216 753569 509
332345 927772 525
588884 284864 470
607999 448066 470
488771 603171 470
309865 345659 384
817689 61607 509
632700 856862 525
734559 190816 509
899350 976988 507
69969 343180 443
297938 261294 407
763159 484711 509
658210 538870 509
115693 716794 509
482216 429833 444
81811 566246 470
231742 421314 449
850811 137390 525
379712 703642 509
740074 24842 509
755441 809788 468
639193 793302 504
949780 470138 525
996453 124116 525
663937 261241 509
608733 727588 509
315139 566132 470
642801 390073 509
207223 204791 373
134076 562512 470
490718 65097 449
454681 584810 470
590313 904946 525
950871 849520 507
957118 499831 525
494464 871402 525
964126 719852 525
848626 668622 525
110065 988420 525
402174 278056 441
143730 340541 443
446253 995237 525
733814 56313 509
111499 123079 349
685065 294651 509
924092 997723 507
859746 878021 432
706843 787342 468
502046 89027 449
435443 320682 449
893265 990639 507
378407 539286 470
805139 572550 509
422316 610482 470
914854 964152 507
577192 310284 470
272865 266774 407
171665 992742 525
682679 183320 509
754038 933330 525
347572 288218 441
508204 829627 509
694279 796495 504
673223 918525 525
428660 908421 525
708725 937349 525
887949 689429 525
718013 207348 509
426882 550733 470
777295 509641 509
457159 112299 449
663644 551748 509
557316 662420 509
134980 416749 449
880053 705663 525
488170 729410 509
353655 794483 509
892104 256252 525
846393 541727 525
883921 169040 525
975394 485284 525
164253 887584 525
78991 697034 509
514291 32897 470
677079 143255 509
461790 476112 413
332739 85857 443
613020 687780 509
424867 488616 444
975491 348206 525
857050 763452 525
715846 702928 504
391542 823798 509
932991 91227 525
46819 720022 509
728299 776571 468
424859 485546 444
446821 495925 444
251364 642786 509
927964 825920 525
678264 342219 509
127754 767488 509
618606 697121 509
526855 997182 525
886503 698771 525
124687 468511 449
286881 824887 509
846726 74646 525
758512 50504 509
574847 744455 509
52562 186873 383
299652 875548 525
844850 694179 525
399407 515482 470
504458 288206 449
916091 911353 401
8168 159269 383
645415 320400 509
